…
### Create a dataframe with row and value


```r
# extract row and values. Method #1
df <- data.frame()
invisible(lapply(seq_along(wanted), function(x) {
    r <- data.frame(row=x, value=wanted[[x]], stringsAsFactors = FALSE)
    df <<- rbind(df, r)
}))
tibble::as.tibble(df) 
#> # A tibble: 24,147 x 2
#>      row value
#>    <int> <chr>
#>  1     1 25*0 
#>  2     1 5*47 
#>  3     1 83*0 
#>  4     1 13*47
#>  5     1 69*0 
#>  6     1 12*34
#>  7     1 16*47
#>  8     1 65*0 
#>  9     1 13*34
#> 10     1 17*47
#> # ... with 24,137 more rows
```



```r
# extract row and values. Method #2
df <- data.frame()
for (i in 1:length(wanted)) {
    x <- data.frame(row=i, value=wanted[[i]], stringsAsFactors = FALSE)
    df <- rbind(df, x)
}
tibble::as.tibble(df) 
#> # A tibble: 24,147 x 2
#>      row value
#>    <int> <chr>
#>  1     1 25*0 
#>  2     1 5*47 
#>  3     1 83*0 
#>  4     1 13*47
#>  5     1 69*0 
#>  6     1 12*34
#>  7     1 16*47
#>  8     1 65*0 
#>  9     1 13*34
#> 10     1 17*47
#> # ... with 24,137 more rows
```
…
